What Am I Doing? - A Hugo website
…
So chapter 2 jumps right in to creating graphs using the mpg dataset. I’ll jump into the exercises in this first part as there isn’t too much detail right off the bat.

2.2.1 Exercises (I’ll be jumping around a bit)

Question 3 Convert mpg to European standard l/100km.

library(ggplot2)
library(dplyr)

mpg %>% 
  mutate(cty_l_per_100km = (1 / (cty * (100 / 62) * (1 / 3.78541))) / 100,
         hwy_l_per_100km = (1 / (hwy * (100 / 62) * (1 / 3.78541))) / 100) %>% 
  select(cty, cty_l_per_100km, hwy, hwy_l_per_100km)

## # A tibble: 234 x 4
##      cty cty_l_per_100km   hwy hwy_l_per_100km
##    <int>           <dbl> <int>           <dbl>
##  1    18         0.00130    29        0.000809
##  2    21         0.00112    29        0.000809
##  3    20         0.00117    31        0.000757
##  4    21         0.00112    30        0.000782
##  5    16         0.00147    26        0.000903
##  6    18         0.00130    26        0.000903
##  7    18         0.00130    27        0.000869
##  8    18         0.00130    26        0.000903
##  9    16         0.00147    25        0.000939
## 10    20         0.00117    28        0.000838
## # … with 224 more rows
…
